{
    "bills": [
        {
            "congress": 119,
            "latestAction": {
                "actionDate": "2026-07-02",
                "text": "Referred to the House Committee on Financial Services."
            },
            "number": "9574",
            "originChamber": "House",
            "originChamberCode": "H",
            "title": "Informed Investor Access Act",
            "type": "HR",
            "updateDate": "2026-07-13",
            "updateDateIncludingText": "2026-07-13",
            "url": "https://api.congress.gov/v3/bill/119/hr/9574?format=json"
        },
        {
            "congress": 119,
            "latestAction": {
                "actionDate": "2026-06-25",
                "text": "Referred to the House Committee on Education and Workforce."
            },
            "number": "9486",
            "originChamber": "House",
            "originChamberCode": "H",
            "title": "Health DATA Act of 2026",
            "type": "HR",
            "updateDate": "2026-07-13",
            "updateDateIncludingText": "2026-07-13",
            "url": "https://api.congress.gov/v3/bill/119/hr/9486?format=json"
        },
        {
            "congress": 119,
            "latestAction": {
                "actionDate": "2026-06-30",
                "text": "Referred to the House Committee on Education and Workforce."
            },
            "number": "9558",
            "originChamber": "House",
            "originChamberCode": "H",
            "title": "21st Century Federal Writers’ Project Act",
            "type": "HR",
            "updateDate": "2026-07-13",
            "updateDateIncludingText": "2026-07-13",
            "url": "https://api.congress.gov/v3/bill/119/hr/9558?format=json"
        },
        {
            "congress": 119,
            "latestAction": {
                "actionDate": "2026-06-29",
                "text": "Referred to the Committee on Ways and Means, and in addition to the Committee on Energy and Commerce, for a period to be subsequently determined by the Speaker, in each case for consideration of such provisions as fall within the jurisdiction of the committee concerned."
            },
            "number": "9532",
            "originChamber": "House",
            "originChamberCode": "H",
            "title": "No Medicare Clawbacks Act of 2026",
            "type": "HR",
            "updateDate": "2026-07-13",
            "updateDateIncludingText": "2026-07-13",
            "url": "https://api.congress.gov/v3/bill/119/hr/9532?format=json"
        },
        {
            "congress": 119,
            "latestAction": {
                "actionDate": "2026-06-30",
                "text": "Referred to the Committee on Foreign Affairs, and in addition to the Committee on Armed Services, for a period to be subsequently determined by the Speaker, in each case for consideration of such provisions as fall within the jurisdiction of the committee concerned."
            },
            "number": "9550",
            "originChamber": "House",
            "originChamberCode": "H",
            "title": "Strategic Unmanned Systems Partnership Act",
            "type": "HR",
            "updateDate": "2026-07-13",
            "updateDateIncludingText": "2026-07-13",
            "url": "https://api.congress.gov/v3/bill/119/hr/9550?format=json"
        },
        {
            "congress": 119,
            "latestAction": {
                "actionDate": "2026-06-09",
                "text": "Read twice and referred to the Committee on Foreign Relations."
            },
            "number": "4711",
            "originChamber": "Senate",
            "originChamberCode": "S",
            "title": "Strategic Unmanned Systems Partnership Act",
            "type": "S",
            "updateDate": "2026-07-13",
            "updateDateIncludingText": "2026-07-13",
            "url": "https://api.congress.gov/v3/bill/119/s/4711?format=json"
        },
        {
            "congress": 119,
            "latestAction": {
                "actionDate": "2026-06-30",
                "text": "Referred to the Committee on Ways and Means, and in addition to the Committees on Energy and Commerce, and Veterans' Affairs, for a period to be subsequently determined by the Speaker, in each case for consideration of such provisions as fall within the jurisdiction of the committee concerned."
            },
            "number": "9544",
            "originChamber": "House",
            "originChamberCode": "H",
            "title": "Save MEDICARE Act of 2026",
            "type": "HR",
            "updateDate": "2026-07-13",
            "updateDateIncludingText": "2026-07-13",
            "url": "https://api.congress.gov/v3/bill/119/hr/9544?format=json"
        },
        {
            "congress": 119,
            "latestAction": {
                "actionDate": "2026-07-09",
                "text": "Referred to the Committee on Energy and Commerce, and in addition to the Committee on Ways and Means, for a period to be subsequently determined by the Speaker, in each case for consideration of such provisions as fall within the jurisdiction of the committee concerned."
            },
            "number": "9623",
            "originChamber": "House",
            "originChamberCode": "H",
            "title": "Protecting Americans’ Health Care Act of 2026",
            "type": "HR",
            "updateDate": "2026-07-13",
            "updateDateIncludingText": "2026-07-13",
            "url": "https://api.congress.gov/v3/bill/119/hr/9623?format=json"
        },
        {
            "congress": 119,
            "latestAction": {
                "actionDate": "2026-06-30",
                "text": "Referred to the Committee on Energy and Commerce, and in addition to the Committee on Ways and Means, for a period to be subsequently determined by the Speaker, in each case for consideration of such provisions as fall within the jurisdiction of the committee concerned."
            },
            "number": "9542",
            "originChamber": "House",
            "originChamberCode": "H",
            "title": "Protecting Health Care and Lowering Costs Act of 2026",
            "type": "HR",
            "updateDate": "2026-07-13",
            "updateDateIncludingText": "2026-07-13",
            "url": "https://api.congress.gov/v3/bill/119/hr/9542?format=json"
        },
        {
            "congress": 119,
            "latestAction": {
                "actionDate": "2026-06-30",
                "text": "Referred to the House Committee on Small Business."
            },
            "number": "9553",
            "originChamber": "House",
            "originChamberCode": "H",
            "title": "Child Care Small Business Insight and Improvement Act of 2026",
            "type": "HR",
            "updateDate": "2026-07-13",
            "updateDateIncludingText": "2026-07-13",
            "url": "https://api.congress.gov/v3/bill/119/hr/9553?format=json"
        },
        {
            "congress": 119,
            "latestAction": {
                "actionDate": "2026-06-30",
                "text": "Referred to the House Committee on Financial Services."
            },
            "number": "9557",
            "originChamber": "House",
            "originChamberCode": "H",
            "title": "Ounce of Prevention Act",
            "type": "HR",
            "updateDate": "2026-07-13",
            "updateDateIncludingText": "2026-07-13",
            "url": "https://api.congress.gov/v3/bill/119/hr/9557?format=json"
        },
        {
            "congress": 119,
            "latestAction": {
                "actionDate": "2025-04-08",
                "text": "Received in the Senate and Read twice and referred to the Committee on Veterans' Affairs."
            },
            "number": "877",
            "originChamber": "House",
            "originChamberCode": "H",
            "title": "Deliver for Veterans Act",
            "type": "HR",
            "updateDate": "2026-07-13",
            "updateDateIncludingText": "2026-07-13",
            "url": "https://api.congress.gov/v3/bill/119/hr/877?format=json"
        },
        {
            "congress": 119,
            "latestAction": {
                "actionDate": "2026-06-30",
                "text": "Referred to the House Committee on Financial Services."
            },
            "number": "9569",
            "originChamber": "House",
            "originChamberCode": "H",
            "title": "Making Condos Safer and Affordable Act of 2026",
            "type": "HR",
            "updateDate": "2026-07-13",
            "updateDateIncludingText": "2026-07-13",
            "url": "https://api.congress.gov/v3/bill/119/hr/9569?format=json"
        },
        {
            "congress": 119,
            "latestAction": {
                "actionDate": "2025-06-27",
                "text": "Received in the Senate and Read twice and referred to the Committee on the Judiciary."
            },
            "number": "875",
            "originChamber": "House",
            "originChamberCode": "H",
            "title": "Jeremy and Angel Seay and Sergeant Brandon Mendoza Protect Our Communities from DUIs Act of 2025",
            "type": "HR",
            "updateDate": "2026-07-13",
            "updateDateIncludingText": "2026-07-13",
            "url": "https://api.congress.gov/v3/bill/119/hr/875?format=json"
        },
        {
            "congress": 119,
            "latestAction": {
                "actionDate": "2025-03-04",
                "text": "Received in the Senate and Read twice and referred to the Committee on Homeland Security and Governmental Affairs."
            },
            "number": "872",
            "originChamber": "House",
            "originChamberCode": "H",
            "title": "Federal Contractor Cybersecurity Vulnerability Reduction Act of 2025",
            "type": "HR",
            "updateDate": "2026-07-13",
            "updateDateIncludingText": "2026-07-13",
            "url": "https://api.congress.gov/v3/bill/119/hr/872?format=json"
        },
        {
            "congress": 119,
            "latestAction": {
                "actionDate": "2025-04-29",
                "text": "Received in the Senate."
            },
            "number": "866",
            "originChamber": "House",
            "originChamberCode": "H",
            "title": "ROUTERS Act",
            "type": "HR",
            "updateDate": "2026-07-13",
            "updateDateIncludingText": "2026-07-13",
            "url": "https://api.congress.gov/v3/bill/119/hr/866?format=json"
        },
        {
            "congress": 119,
            "latestAction": {
                "actionDate": "2026-06-09",
                "text": "Received in the Senate and Read twice and referred to the Committee on Foreign Relations."
            },
            "number": "8665",
            "originChamber": "House",
            "originChamberCode": "H",
            "title": "Allied Defense Sales Act",
            "type": "HR",
            "updateDate": "2026-07-13",
            "updateDateIncludingText": "2026-07-13",
            "url": "https://api.congress.gov/v3/bill/119/hr/8665?format=json"
        },
        {
            "congress": 119,
            "latestAction": {
                "actionDate": "2026-06-08",
                "text": "Received in the Senate."
            },
            "number": "8646",
            "originChamber": "House",
            "originChamberCode": "H",
            "title": "Agriculture, Rural Development, Food and Drug Administration, and Related Agency Appropriations Act, 2027",
            "type": "HR",
            "updateDate": "2026-07-13",
            "updateDateIncludingText": "2026-07-13",
            "url": "https://api.congress.gov/v3/bill/119/hr/8646?format=json"
        },
        {
            "congress": 119,
            "latestAction": {
                "actionDate": "2025-03-11",
                "text": "Received in the Senate and Read twice and referred to the Committee on Commerce, Science, and Transportation."
            },
            "number": "862",
            "originChamber": "House",
            "originChamberCode": "H",
            "title": "TSA Commuting Fairness Act",
            "type": "HR",
            "updateDate": "2026-07-13",
            "updateDateIncludingText": "2026-07-13",
            "url": "https://api.congress.gov/v3/bill/119/hr/862?format=json"
        },
        {
            "congress": 119,
            "latestAction": {
                "actionDate": "2025-04-30",
                "text": "Received in the Senate. Read twice. Placed on Senate Legislative Calendar under General Orders. Calendar No. 64."
            },
            "number": "859",
            "originChamber": "House",
            "originChamberCode": "H",
            "title": "Informing Consumers about Smart Devices Act",
            "type": "HR",
            "updateDate": "2026-07-13",
            "updateDateIncludingText": "2026-07-13",
            "url": "https://api.congress.gov/v3/bill/119/hr/859?format=json"
        }
    ],
    "pagination": {
        "count": 428608,
        "next": "https://api.congress.gov/v3/bill?sort=updateDate desc&offset=20&limit=20&format=json"
    },
    "request": {
        "contentType": "application/json",
        "format": "json"
    }
}
