{
    "bills": [
        {
            "congress": 119,
            "latestAction": {
                "actionDate": "2026-06-11",
                "text": "Placed on the Union Calendar, Calendar No. 603."
            },
            "number": "4238",
            "originChamber": "House",
            "originChamberCode": "H",
            "title": "DLARA",
            "type": "HR",
            "updateDate": "2026-06-22",
            "updateDateIncludingText": "2026-06-22",
            "url": "https://api.congress.gov/v3/bill/119/hr/4238?format=json"
        },
        {
            "congress": 119,
            "latestAction": {
                "actionDate": "2026-06-09",
                "text": "Placed on the Union Calendar, Calendar No. 601."
            },
            "number": "1501",
            "originChamber": "House",
            "originChamberCode": "H",
            "title": "Protecting Domestic Mining Act of 2025",
            "type": "HR",
            "updateDate": "2026-06-22",
            "updateDateIncludingText": "2026-06-22",
            "url": "https://api.congress.gov/v3/bill/119/hr/1501?format=json"
        },
        {
            "congress": 119,
            "latestAction": {
                "actionDate": "2025-02-13",
                "text": "Received in the Senate and Read twice and referred to the Committee on the Judiciary."
            },
            "number": "35",
            "originChamber": "House",
            "originChamberCode": "H",
            "title": "Agent Raul Gonzalez Officer Safety Act",
            "type": "HR",
            "updateDate": "2026-06-22",
            "updateDateIncludingText": "2026-06-22",
            "url": "https://api.congress.gov/v3/bill/119/hr/35?format=json"
        },
        {
            "congress": 119,
            "latestAction": {
                "actionDate": "2026-05-21",
                "text": "Read twice and referred to the Committee on Agriculture, Nutrition, and Forestry."
            },
            "number": "4628",
            "originChamber": "Senate",
            "originChamberCode": "S",
            "title": "A bill to direct the Secretary of Agriculture to establish an initiative to address the availability, quality, and cost of childcare in rural areas, and for other purposes.",
            "type": "S",
            "updateDate": "2026-06-22",
            "updateDateIncludingText": "2026-06-22",
            "url": "https://api.congress.gov/v3/bill/119/s/4628?format=json"
        },
        {
            "congress": 119,
            "latestAction": {
                "actionDate": "2026-05-04",
                "text": "Became Public Law No: 119-88."
            },
            "number": "723",
            "originChamber": "Senate",
            "originChamberCode": "S",
            "title": "Tribal Trust Land Homeownership Act of 2025",
            "type": "S",
            "updateDate": "2026-06-22",
            "updateDateIncludingText": "2026-06-22",
            "url": "https://api.congress.gov/v3/bill/119/s/723?format=json"
        },
        {
            "congress": 119,
            "latestAction": {
                "actionDate": "2025-12-26",
                "text": "Became Public Law No: 119-63."
            },
            "number": "410",
            "originChamber": "House",
            "originChamberCode": "H",
            "title": "Alaska Native Vietnam Era Veterans Land Allotment Extension Act of 2025",
            "type": "HR",
            "updateDate": "2026-06-22",
            "updateDateIncludingText": "2026-06-22",
            "url": "https://api.congress.gov/v3/bill/119/hr/410?format=json"
        },
        {
            "congress": 119,
            "latestAction": {
                "actionDate": "2026-06-18",
                "text": "Motion by Senator Thune to refer to Senate Committee on Banking, Housing, and Urban Affairs the House message to accompany H.R. 6644 with instructions to report back forthwith with the following amendment (SA 5825) fell when cloture was invoked on the motion to concur in the House amendment to the Senate amendment to H.R. 6644 in Senate."
            },
            "number": "6644",
            "originChamber": "House",
            "originChamberCode": "H",
            "title": "21st Century ROAD to Housing Act",
            "type": "HR",
            "updateDate": "2026-06-22",
            "updateDateIncludingText": "2026-06-22",
            "url": "https://api.congress.gov/v3/bill/119/hr/6644?format=json"
        },
        {
            "congress": 119,
            "latestAction": {
                "actionDate": "2026-06-18",
                "text": "Referred to the Committee on the Judiciary. (text: CR S2940)"
            },
            "number": "781",
            "originChamber": "Senate",
            "originChamberCode": "S",
            "title": "A resolution commemorating June 19, 2026, as \"Juneteenth National Independence Day\" in recognition of June 19, 1865, the date on which news of the end of slavery reached the slaves in the Southwestern States.",
            "type": "SRES",
            "updateDate": "2026-06-22",
            "updateDateIncludingText": "2026-06-22",
            "url": "https://api.congress.gov/v3/bill/119/sres/781?format=json"
        },
        {
            "congress": 119,
            "latestAction": {
                "actionDate": "2025-12-19",
                "text": "Became Public Law No: 119-61."
            },
            "number": "165",
            "originChamber": "House",
            "originChamberCode": "H",
            "title": "Wounded Knee Massacre Memorial and Sacred Site Act",
            "type": "HR",
            "updateDate": "2026-06-22",
            "updateDateIncludingText": "2026-06-22",
            "url": "https://api.congress.gov/v3/bill/119/hr/165?format=json"
        },
        {
            "congress": 119,
            "latestAction": {
                "actionDate": "2026-06-18",
                "text": "Referred to the Committee on Foreign Relations. (text: CR S2939)"
            },
            "number": "780",
            "originChamber": "Senate",
            "originChamberCode": "S",
            "title": "A resolution expressing support for the designation of June 19, 2026, as \"World Sickle Cell Awareness Day\" in order to increase public awareness across the United States and global community about sickle cell disease and the continued need for empirical research, early detection screenings, novel effective treatments leading to a cure, and preventative care programs with respect to complications from sickle cell anemia and conditions relating to sickle cell disease.",
            "type": "SRES",
            "updateDate": "2026-06-22",
            "updateDateIncludingText": "2026-06-22",
            "url": "https://api.congress.gov/v3/bill/119/sres/780?format=json"
        },
        {
            "congress": 119,
            "latestAction": {
                "actionDate": "2025-07-07",
                "text": "Became Public Law No: 119-22."
            },
            "number": "42",
            "originChamber": "House",
            "originChamberCode": "H",
            "title": "Alaska Native Settlement Trust Eligibility Act",
            "type": "HR",
            "updateDate": "2026-06-22",
            "updateDateIncludingText": "2026-06-22",
            "url": "https://api.congress.gov/v3/bill/119/hr/42?format=json"
        },
        {
            "congress": 119,
            "latestAction": {
                "actionDate": "2026-06-18",
                "text": "Referred to the Committee on the Judiciary. (text: CR S2938-2939)"
            },
            "number": "779",
            "originChamber": "Senate",
            "originChamberCode": "S",
            "title": "A resolution recognizing the contributions of Black people to the musical heritage of the United States and the need for greater access to music education for Black students and designating June 2026 as \"Black Music Month\".",
            "type": "SRES",
            "updateDate": "2026-06-22",
            "updateDateIncludingText": "2026-06-22",
            "url": "https://api.congress.gov/v3/bill/119/sres/779?format=json"
        },
        {
            "congress": 119,
            "latestAction": {
                "actionDate": "2025-07-07",
                "text": "Became Public Law No: 119-23."
            },
            "number": "43",
            "originChamber": "House",
            "originChamberCode": "H",
            "title": "Alaska Native Village Municipal Lands Restoration Act of 2025",
            "type": "HR",
            "updateDate": "2026-06-22",
            "updateDateIncludingText": "2026-06-22",
            "url": "https://api.congress.gov/v3/bill/119/hr/43?format=json"
        },
        {
            "congress": 119,
            "latestAction": {
                "actionDate": "2026-06-18",
                "text": "Referred to the Committee on Foreign Relations. (text: CR S2937)"
            },
            "number": "778",
            "originChamber": "Senate",
            "originChamberCode": "S",
            "title": "A resolution recognizing and honoring Cambodian veterans of the Khmer National Armed Forces for their sacrifices, their support of the Armed Forces of the United States, and their defense of freedom in Southeast Asia.",
            "type": "SRES",
            "updateDate": "2026-06-22",
            "updateDateIncludingText": "2026-06-22",
            "url": "https://api.congress.gov/v3/bill/119/sres/778?format=json"
        },
        {
            "congress": 119,
            "latestAction": {
                "actionDate": "2026-06-18",
                "text": "Passed Senate with an amendment by Voice Vote. (consideration: CR S2922-2924; text: CR S2923)"
            },
            "number": "2585",
            "originChamber": "Senate",
            "originChamberCode": "S",
            "title": "MAP for Broadband Funding Act",
            "type": "S",
            "updateDate": "2026-06-22",
            "updateDateIncludingText": "2026-06-22",
            "url": "https://api.congress.gov/v3/bill/119/s/2585?format=json"
        },
        {
            "congress": 119,
            "latestAction": {
                "actionDate": "2026-06-18",
                "text": "Introduced in the Senate, read twice, considered, read the third time, and passed without amendment by Unanimous Consent. (consideration: CR S2917-2920; text: CR S2918-2920)"
            },
            "number": "4828",
            "originChamber": "Senate",
            "originChamberCode": "S",
            "title": "Declaration of Independence Reaffirmation Act of 2026",
            "type": "S",
            "updateDate": "2026-06-22",
            "updateDateIncludingText": "2026-06-22",
            "url": "https://api.congress.gov/v3/bill/119/s/4828?format=json"
        },
        {
            "congress": 119,
            "latestAction": {
                "actionDate": "2026-06-04",
                "text": "Referred to the Committee on the Judiciary, and in addition to the Committees on Energy and Commerce, and Education and Workforce, for a period to be subsequently determined by the Speaker, in each case for consideration of such provisions as fall within the jurisdiction of the committee concerned."
            },
            "number": "9137",
            "originChamber": "House",
            "originChamberCode": "H",
            "title": "Protect College Sports Act of 2026",
            "type": "HR",
            "updateDate": "2026-06-22",
            "updateDateIncludingText": "2026-06-22",
            "url": "https://api.congress.gov/v3/bill/119/hr/9137?format=json"
        },
        {
            "congress": 119,
            "latestAction": {
                "actionDate": "2025-02-13",
                "text": "Received in the Senate and Read twice and referred to the Committee on Homeland Security and Governmental Affairs."
            },
            "number": "77",
            "originChamber": "House",
            "originChamberCode": "H",
            "title": "Midnight Rules Relief Act",
            "type": "HR",
            "updateDate": "2026-06-22",
            "updateDateIncludingText": "2026-06-22",
            "url": "https://api.congress.gov/v3/bill/119/hr/77?format=json"
        },
        {
            "congress": 119,
            "latestAction": {
                "actionDate": "2026-06-11",
                "text": "Read twice and referred to the Committee on Energy and Natural Resources. (text: CR S2759-2766)"
            },
            "number": "4765",
            "originChamber": "Senate",
            "originChamberCode": "S",
            "title": "Let America Build Act of 2026",
            "type": "S",
            "updateDate": "2026-06-22",
            "updateDateIncludingText": "2026-06-22",
            "url": "https://api.congress.gov/v3/bill/119/s/4765?format=json"
        },
        {
            "congress": 119,
            "latestAction": {
                "actionDate": "2025-07-24",
                "text": "Became Public Law No: 119-28."
            },
            "number": "4",
            "originChamber": "House",
            "originChamberCode": "H",
            "title": "Rescissions Act of 2025",
            "type": "HR",
            "updateDate": "2026-06-22",
            "updateDateIncludingText": "2026-06-22",
            "url": "https://api.congress.gov/v3/bill/119/hr/4?format=json"
        }
    ],
    "pagination": {
        "count": 428177,
        "next": "https://api.congress.gov/v3/bill?sort=updateDate desc&offset=20&limit=20&format=json"
    },
    "request": {
        "contentType": "application/json",
        "format": "json"
    }
}
