{
    "bills": [
        {
            "congress": 119,
            "latestAction": {
                "actionDate": "2026-06-04",
                "text": "Referred to the House Committee on Oversight and Government Reform."
            },
            "number": "9141",
            "originChamber": "House",
            "originChamberCode": "H",
            "title": "SAVE America Through REAL ID Act",
            "type": "HR",
            "updateDate": "2026-06-10",
            "updateDateIncludingText": "2026-06-10",
            "url": "https://api.congress.gov/v3/bill/119/hr/9141?format=json"
        },
        {
            "congress": 119,
            "latestAction": {
                "actionDate": "2026-05-29",
                "text": "Referred to the Committee on the Judiciary, and in addition to the Committee on Homeland Security, for a period to be subsequently determined by the Speaker, in each case for consideration of such provisions as fall within the jurisdiction of the committee concerned."
            },
            "number": "9070",
            "originChamber": "House",
            "originChamberCode": "H",
            "title": "OPEN Act",
            "type": "HR",
            "updateDate": "2026-06-10",
            "updateDateIncludingText": "2026-06-10",
            "url": "https://api.congress.gov/v3/bill/119/hr/9070?format=json"
        },
        {
            "congress": 119,
            "latestAction": {
                "actionDate": "2026-06-04",
                "text": "Referred to the House Committee on Armed Services."
            },
            "number": "9140",
            "originChamber": "House",
            "originChamberCode": "H",
            "title": "MEDIC Careers Act of 2026",
            "type": "HR",
            "updateDate": "2026-06-10",
            "updateDateIncludingText": "2026-06-10",
            "url": "https://api.congress.gov/v3/bill/119/hr/9140?format=json"
        },
        {
            "congress": 119,
            "latestAction": {
                "actionDate": "2026-06-03",
                "text": "Referred to the House Committee on Veterans' Affairs."
            },
            "number": "9135",
            "originChamber": "House",
            "originChamberCode": "H",
            "title": "TDIU Reform Act of 2026",
            "type": "HR",
            "updateDate": "2026-06-10",
            "updateDateIncludingText": "2026-06-10",
            "url": "https://api.congress.gov/v3/bill/119/hr/9135?format=json"
        },
        {
            "congress": 119,
            "latestAction": {
                "actionDate": "2026-06-04",
                "text": "Referred to the House Committee on Energy and Commerce."
            },
            "number": "9139",
            "originChamber": "House",
            "originChamberCode": "H",
            "title": "Medicaid Financing Clarification Act of 2026",
            "type": "HR",
            "updateDate": "2026-06-10",
            "updateDateIncludingText": "2026-06-10",
            "url": "https://api.congress.gov/v3/bill/119/hr/9139?format=json"
        },
        {
            "congress": 119,
            "latestAction": {
                "actionDate": "2026-06-08",
                "actionTime": "15:35:37",
                "text": "The title of the measure was amended. Agreed to without objection."
            },
            "number": "428",
            "originChamber": "House",
            "originChamberCode": "H",
            "title": "Bonuses for Cost-Cutters and Fraud Preventers Act of 2026",
            "type": "HR",
            "updateDate": "2026-06-10",
            "updateDateIncludingText": "2026-06-10",
            "url": "https://api.congress.gov/v3/bill/119/hr/428?format=json"
        },
        {
            "congress": 119,
            "latestAction": {
                "actionDate": "2026-06-03",
                "text": "Referred to the House Committee on Education and Workforce."
            },
            "number": "9134",
            "originChamber": "House",
            "originChamberCode": "H",
            "title": "Protecting Student Privacy Act",
            "type": "HR",
            "updateDate": "2026-06-10",
            "updateDateIncludingText": "2026-06-10",
            "url": "https://api.congress.gov/v3/bill/119/hr/9134?format=json"
        },
        {
            "congress": 119,
            "latestAction": {
                "actionDate": "2026-06-08",
                "actionTime": "14:49:01",
                "text": "The title of the measure was amended. Agreed to without objection."
            },
            "number": "6916",
            "originChamber": "House",
            "originChamberCode": "H",
            "title": "Federal Program Integrity and Fraud Prevention Act of 2026",
            "type": "HR",
            "updateDate": "2026-06-10",
            "updateDateIncludingText": "2026-06-10",
            "url": "https://api.congress.gov/v3/bill/119/hr/6916?format=json"
        },
        {
            "congress": 119,
            "latestAction": {
                "actionDate": "2026-06-02",
                "text": "Read twice and referred to the Committee on Rules and Administration."
            },
            "number": "4659",
            "originChamber": "Senate",
            "originChamberCode": "S",
            "title": "Election Security Partnership Act",
            "type": "S",
            "updateDate": "2026-06-10",
            "updateDateIncludingText": "2026-06-10",
            "url": "https://api.congress.gov/v3/bill/119/s/4659?format=json"
        },
        {
            "congress": 119,
            "latestAction": {
                "actionDate": "2026-06-08",
                "actionTime": "16:14:18",
                "text": "The title of the measure was amended. Agreed to without objection."
            },
            "number": "1744",
            "originChamber": "House",
            "originChamberCode": "H",
            "title": "United States Commission on International Religious Freedom Reauthorization Act of 2026",
            "type": "HR",
            "updateDate": "2026-06-10",
            "updateDateIncludingText": "2026-06-10",
            "url": "https://api.congress.gov/v3/bill/119/hr/1744?format=json"
        },
        {
            "congress": 119,
            "latestAction": {
                "actionDate": "2026-06-08",
                "actionTime": "17:18:34",
                "text": "Motion to reconsider laid on the table Agreed to without objection."
            },
            "number": "5248",
            "originChamber": "House",
            "originChamberCode": "H",
            "title": "PROFIT Act of 2026",
            "type": "HR",
            "updateDate": "2026-06-10",
            "updateDateIncludingText": "2026-06-10",
            "url": "https://api.congress.gov/v3/bill/119/hr/5248?format=json"
        },
        {
            "congress": 119,
            "latestAction": {
                "actionDate": "2026-06-02",
                "text": "Read twice and referred to the Committee on Finance."
            },
            "number": "4657",
            "originChamber": "Senate",
            "originChamberCode": "S",
            "title": "Modern, Clean, and Safe Trucks Act of 2026",
            "type": "S",
            "updateDate": "2026-06-10",
            "updateDateIncludingText": "2026-06-10",
            "url": "https://api.congress.gov/v3/bill/119/s/4657?format=json"
        },
        {
            "congress": 119,
            "latestAction": {
                "actionDate": "2026-06-08",
                "actionTime": "16:23:32",
                "text": "The title of the measure was amended. Agreed to without objection."
            },
            "number": "6297",
            "originChamber": "House",
            "originChamberCode": "H",
            "title": "PEACE Act",
            "type": "HR",
            "updateDate": "2026-06-10",
            "updateDateIncludingText": "2026-06-10",
            "url": "https://api.congress.gov/v3/bill/119/hr/6297?format=json"
        },
        {
            "congress": 119,
            "latestAction": {
                "actionDate": "2026-06-02",
                "text": "Read twice and referred to the Committee on Finance."
            },
            "number": "4662",
            "originChamber": "Senate",
            "originChamberCode": "S",
            "title": "ROBINHOOD Act of 2026",
            "type": "S",
            "updateDate": "2026-06-10",
            "updateDateIncludingText": "2026-06-10",
            "url": "https://api.congress.gov/v3/bill/119/s/4662?format=json"
        },
        {
            "congress": 119,
            "latestAction": {
                "actionDate": "2026-06-08",
                "actionTime": "19:05:15",
                "text": "The title of the measure was amended. Agreed to without objection."
            },
            "number": "8428",
            "originChamber": "House",
            "originChamberCode": "H",
            "title": "Federal Fraud Prevention Workforce Training Act",
            "type": "HR",
            "updateDate": "2026-06-10",
            "updateDateIncludingText": "2026-06-10",
            "url": "https://api.congress.gov/v3/bill/119/hr/8428?format=json"
        },
        {
            "congress": 119,
            "latestAction": {
                "actionDate": "2026-06-08",
                "actionTime": "16:39:23",
                "text": "Motion to reconsider laid on the table Agreed to without objection."
            },
            "number": "6230",
            "originChamber": "House",
            "originChamberCode": "H",
            "title": "Tehran Incitement to Violence Act",
            "type": "HR",
            "updateDate": "2026-06-10",
            "updateDateIncludingText": "2026-06-10",
            "url": "https://api.congress.gov/v3/bill/119/hr/6230?format=json"
        },
        {
            "congress": 119,
            "latestAction": {
                "actionDate": "2026-06-08",
                "actionTime": "17:11:48",
                "text": "Motion to reconsider laid on the table Agreed to without objection."
            },
            "number": "7668",
            "originChamber": "House",
            "originChamberCode": "H",
            "title": "Countering China’s Control of the Caucasus Act",
            "type": "HR",
            "updateDate": "2026-06-10",
            "updateDateIncludingText": "2026-06-10",
            "url": "https://api.congress.gov/v3/bill/119/hr/7668?format=json"
        },
        {
            "congress": 119,
            "latestAction": {
                "actionDate": "2026-06-08",
                "actionTime": "17:16:51",
                "text": "Motion to reconsider laid on the table Agreed to without objection."
            },
            "number": "6338",
            "originChamber": "House",
            "originChamberCode": "H",
            "title": "Stop Illegal Fishing Act",
            "type": "HR",
            "updateDate": "2026-06-10",
            "updateDateIncludingText": "2026-06-10",
            "url": "https://api.congress.gov/v3/bill/119/hr/6338?format=json"
        },
        {
            "congress": 119,
            "latestAction": {
                "actionDate": "2026-06-02",
                "text": "Read twice and referred to the Committee on Agriculture, Nutrition, and Forestry."
            },
            "number": "4661",
            "originChamber": "Senate",
            "originChamberCode": "S",
            "title": "Ensuring Disaster Recovery and Resilience for Specialty Crops Act",
            "type": "S",
            "updateDate": "2026-06-10",
            "updateDateIncludingText": "2026-06-10",
            "url": "https://api.congress.gov/v3/bill/119/s/4661?format=json"
        },
        {
            "congress": 119,
            "latestAction": {
                "actionDate": "2026-06-08",
                "actionTime": "16:03:19",
                "text": "Motion to reconsider laid on the table Agreed to without objection."
            },
            "number": "3429",
            "originChamber": "House",
            "originChamberCode": "H",
            "title": "US-Japan-ROK Trilateral Cooperation Act",
            "type": "HR",
            "updateDate": "2026-06-10",
            "updateDateIncludingText": "2026-06-10",
            "url": "https://api.congress.gov/v3/bill/119/hr/3429?format=json"
        }
    ],
    "pagination": {
        "count": 427815,
        "next": "https://api.congress.gov/v3/bill?sort=updateDate desc&offset=20&limit=20&format=json"
    },
    "request": {
        "contentType": "application/json",
        "format": "json"
    }
}
